TP1_Memory/Partie1/simulation/qsim/Partie1.msim.vcd
$comment
	File created using the following command:
		vcd file Partie1.msim.vcd -direction
$end
$date
	Mon May 15 22:00:21 2023
$end
$version
	ModelSim Version 2020.1
$end
$timescale
	1ps
$end

$scope module partie1_vhd_vec_tst $end
$var wire 1 ! address [4] $end
$var wire 1 " address [3] $end
$var wire 1 # address [2] $end
$var wire 1 $ address [1] $end
$var wire 1 % address [0] $end
$var wire 1 & clock $end
$var wire 1 ' datain [3] $end
$var wire 1 ( datain [2] $end
$var wire 1 ) datain [1] $end
$var wire 1 * datain [0] $end
$var wire 1 + dataout [3] $end
$var wire 1 , dataout [2] $end
$var wire 1 - dataout [1] $end
$var wire 1 . dataout [0] $end
$var wire 1 / wren $end

$scope module i1 $end
$var wire 1 0 gnd $end
$var wire 1 1 vcc $end
$var wire 1 2 unknown $end
$var wire 1 3 devoe $end
$var wire 1 4 devclrn $end
$var wire 1 5 devpor $end
$var wire 1 6 ww_devoe $end
$var wire 1 7 ww_devclrn $end
$var wire 1 8 ww_devpor $end
$var wire 1 9 ww_clock $end
$var wire 1 : ww_address [4] $end
$var wire 1 ; ww_address [3] $end
$var wire 1 < ww_address [2] $end
$var wire 1 = ww_address [1] $end
$var wire 1 > ww_address [0] $end
$var wire 1 ? ww_wren $end
$var wire 1 @ ww_datain [3] $end
$var wire 1 A ww_datain [2] $end
$var wire 1 B ww_datain [1] $end
$var wire 1 C ww_datain [0] $end
$var wire 1 D ww_dataout [3] $end
$var wire 1 E ww_dataout [2] $end
$var wire 1 F ww_dataout [1] $end
$var wire 1 G ww_dataout [0] $end
$var wire 1 H \U1|altsyncram_component|auto_generated|ram_block1a0_PORTADATAIN_bus\ [19] $end
$var wire 1 I \U1|altsyncram_component|auto_generated|ram_block1a0_PORTADATAIN_bus\ [18] $end
$var wire 1 J \U1|altsyncram_component|auto_generated|ram_block1a0_PORTADATAIN_bus\ [17] $end
$var wire 1 K \U1|altsyncram_component|auto_generated|ram_block1a0_PORTADATAIN_bus\ [16] $end
$var wire 1 L \U1|altsyncram_component|auto_generated|ram_block1a0_PORTADATAIN_bus\ [15] $end
$var wire 1 M \U1|altsyncram_component|auto_generated|ram_block1a0_PORTADATAIN_bus\ [14] $end
$var wire 1 N \U1|altsyncram_component|auto_generated|ram_block1a0_PORTADATAIN_bus\ [13] $end
$var wire 1 O \U1|altsyncram_component|auto_generated|ram_block1a0_PORTADATAIN_bus\ [12] $end
$var wire 1 P \U1|altsyncram_component|auto_generated|ram_block1a0_PORTADATAIN_bus\ [11] $end
$var wire 1 Q \U1|altsyncram_component|auto_generated|ram_block1a0_PORTADATAIN_bus\ [10] $end
$var wire 1 R \U1|altsyncram_component|auto_generated|ram_block1a0_PORTADATAIN_bus\ [9] $end
$var wire 1 S \U1|altsyncram_component|auto_generated|ram_block1a0_PORTADATAIN_bus\ [8] $end
$var wire 1 T \U1|altsyncram_component|auto_generated|ram_block1a0_PORTADATAIN_bus\ [7] $end
$var wire 1 U \U1|altsyncram_component|auto_generated|ram_block1a0_PORTADATAIN_bus\ [6] $end
$var wire 1 V \U1|altsyncram_component|auto_generated|ram_block1a0_PORTADATAIN_bus\ [5] $end
$var wire 1 W \U1|altsyncram_component|auto_generated|ram_block1a0_PORTADATAIN_bus\ [4] $end
$var wire 1 X \U1|altsyncram_component|auto_generated|ram_block1a0_PORTADATAIN_bus\ [3] $end
$var wire 1 Y \U1|altsyncram_component|auto_generated|ram_block1a0_PORTADATAIN_bus\ [2] $end
$var wire 1 Z \U1|altsyncram_component|auto_generated|ram_block1a0_PORTADATAIN_bus\ [1] $end
$var wire 1 [ \U1|altsyncram_component|auto_generated|ram_block1a0_PORTADATAIN_bus\ [0] $end
$var wire 1 \ \U1|altsyncram_component|auto_generated|ram_block1a0_PORTAADDR_bus\ [4] $end
$var wire 1 ] \U1|altsyncram_component|auto_generated|ram_block1a0_PORTAADDR_bus\ [3] $end
$var wire 1 ^ \U1|altsyncram_component|auto_generated|ram_block1a0_PORTAADDR_bus\ [2] $end
$var wire 1 _ \U1|altsyncram_component|auto_generated|ram_block1a0_PORTAADDR_bus\ [1] $end
$var wire 1 ` \U1|altsyncram_component|auto_generated|ram_block1a0_PORTAADDR_bus\ [0] $end
$var wire 1 a \U1|altsyncram_component|auto_generated|ram_block1a0_PORTADATAOUT_bus\ [19] $end
$var wire 1 b \U1|altsyncram_component|auto_generated|ram_block1a0_PORTADATAOUT_bus\ [18] $end
$var wire 1 c \U1|altsyncram_component|auto_generated|ram_block1a0_PORTADATAOUT_bus\ [17] $end
$var wire 1 d \U1|altsyncram_component|auto_generated|ram_block1a0_PORTADATAOUT_bus\ [16] $end
$var wire 1 e \U1|altsyncram_component|auto_generated|ram_block1a0_PORTADATAOUT_bus\ [15] $end
$var wire 1 f \U1|altsyncram_component|auto_generated|ram_block1a0_PORTADATAOUT_bus\ [14] $end
$var wire 1 g \U1|altsyncram_component|auto_generated|ram_block1a0_PORTADATAOUT_bus\ [13] $end
$var wire 1 h \U1|altsyncram_component|auto_generated|ram_block1a0_PORTADATAOUT_bus\ [12] $end
$var wire 1 i \U1|altsyncram_component|auto_generated|ram_block1a0_PORTADATAOUT_bus\ [11] $end
$var wire 1 j \U1|altsyncram_component|auto_generated|ram_block1a0_PORTADATAOUT_bus\ [10] $end
$var wire 1 k \U1|altsyncram_component|auto_generated|ram_block1a0_PORTADATAOUT_bus\ [9] $end
$var wire 1 l \U1|altsyncram_component|auto_generated|ram_block1a0_PORTADATAOUT_bus\ [8] $end
$var wire 1 m \U1|altsyncram_component|auto_generated|ram_block1a0_PORTADATAOUT_bus\ [7] $end
$var wire 1 n \U1|altsyncram_component|auto_generated|ram_block1a0_PORTADATAOUT_bus\ [6] $end
$var wire 1 o \U1|altsyncram_component|auto_generated|ram_block1a0_PORTADATAOUT_bus\ [5] $end
$var wire 1 p \U1|altsyncram_component|auto_generated|ram_block1a0_PORTADATAOUT_bus\ [4] $end
$var wire 1 q \U1|altsyncram_component|auto_generated|ram_block1a0_PORTADATAOUT_bus\ [3] $end
$var wire 1 r \U1|altsyncram_component|auto_generated|ram_block1a0_PORTADATAOUT_bus\ [2] $end
$var wire 1 s \U1|altsyncram_component|auto_generated|ram_block1a0_PORTADATAOUT_bus\ [1] $end
$var wire 1 t \U1|altsyncram_component|auto_generated|ram_block1a0_PORTADATAOUT_bus\ [0] $end
$var wire 1 u \~QUARTUS_CREATED_GND~I_combout\ $end
$var wire 1 v \wren~input_o\ $end
$var wire 1 w \clock~input_o\ $end
$var wire 1 x \clock~inputCLKENA0_outclk\ $end
$var wire 1 y \datain[0]~input_o\ $end
$var wire 1 z \address[0]~input_o\ $end
$var wire 1 { \address[1]~input_o\ $end
$var wire 1 | \address[2]~input_o\ $end
$var wire 1 } \address[3]~input_o\ $end
$var wire 1 ~ \address[4]~input_o\ $end
$var wire 1 !! \datain[1]~input_o\ $end
$var wire 1 "! \datain[2]~input_o\ $end
$var wire 1 #! \datain[3]~input_o\ $end
$var wire 1 $! \U1|altsyncram_component|auto_generated|q_a\ [3] $end
$var wire 1 %! \U1|altsyncram_component|auto_generated|q_a\ [2] $end
$var wire 1 &! \U1|altsyncram_component|auto_generated|q_a\ [1] $end
$var wire 1 '! \U1|altsyncram_component|auto_generated|q_a\ [0] $end
$upscope $end
$upscope $end
$enddefinitions $end
#0
$dumpvars
0&
1/
00
11
x2
13
14
15
16
17
18
09
1?
xu
1v
0w
0x
1y
0z
0{
0|
0}
0~
1!!
0"!
0#!
0!
0"
0#
0$
0%
0'
0(
1)
1*
0:
0;
0<
0=
0>
0@
0A
1B
1C
0D
0E
0F
0G
0a
0b
0c
0d
0e
0f
0g
0h
0i
0j
0k
0l
0m
0n
0o
0p
0q
0r
0s
0t
0$!
0%!
0&!
0'!
0H
0I
0J
0K
0L
0M
0N
0O
0P
0Q
0R
0S
0T
0U
0V
0W
0X
0Y
1Z
1[
0\
0]
0^
0_
0`
0+
0,
0-
0.
$end
#10000
1&
19
1w
1x
#10001
1s
1t
1&!
1'!
1G
1F
1.
1-
#20000
0&
1%
0)
09
1>
0B
0!!
1z
0w
0x
0Z
1`
#30000
1&
19
1w
1x
#30001
0s
0&!
0F
0-
#40000
0&
0%
1$
1'
0*
09
0>
1=
0C
1@
1#!
0y
1{
0z
0w
0x
0[
1X
0`
1_
#50000
1&
19
1w
1x
#50001
1q
0t
1$!
0'!
0G
1D
0.
1+
#60000
0&
1%
1*
1(
09
1>
1C
1A
1"!
1y
1z
0w
0x
1[
1Y
1`
#70000
1&
19
1w
1x
#70001
1r
1t
1%!
1'!
1G
1E
1.
1,
#80000
0&
0%
0*
0(
0$
0'
1#
09
0>
0=
1<
0C
0A
0@
0#!
0"!
0y
1|
0{
0z
0w
0x
0[
0Y
0X
0`
0_
1^
#90000
1&
19
1w
1x
#90001
0q
0r
0t
0$!
0%!
0'!
0G
0E
0D
0.
0,
0+
#100000
0&
1%
1*
1(
1'
1)
09
1>
1C
1B
1A
1@
1#!
1"!
1!!
1y
1z
0w
0x
1[
1Z
1Y
1X
1`
#110000
1&
19
1w
1x
#110001
1q
1r
1s
1t
1$!
1%!
1&!
1'!
1G
1F
1E
1D
1.
1-
1,
1+
#120000
0&
0%
0'
0)
1$
09
0>
1=
0B
0@
0#!
0!!
1{
0z
0w
0x
0Z
0X
0`
1_
#130000
1&
19
1w
1x
#130001
0q
0s
0$!
0&!
0F
0D
0-
0+
#140000
0&
1%
1'
0*
0(
09
1>
0C
0A
1@
1#!
0"!
0y
1z
0w
0x
0[
0Y
1X
1`
#150000
1&
19
1w
1x
#150001
1q
0r
0t
1$!
0%!
0'!
0G
0E
1D
0.
0,
1+
#160000
0&
0%
0'
0$
0#
1"
09
0>
0=
0<
1;
0@
0#!
1}
0|
0{
0z
0w
0x
0X
0`
0_
0^
1]
#170000
1&
19
1w
1x
#170001
0q
0$!
0D
0+
#180000
0&
1%
1'
09
1>
1@
1#!
1z
0w
0x
1X
1`
#190000
1&
19
1w
1x
#190001
1q
1$!
1D
1+
#200000
0&
0%
0'
1$
1*
1(
09
0>
1=
1C
1A
0@
0#!
1"!
1y
1{
0z
0w
0x
1[
1Y
0X
0`
1_
#210000
1&
19
1w
1x
#210001
0q
1r
1t
0$!
1%!
1'!
1G
1E
0D
1.
1,
0+
#220000
0&
1%
1'
0*
09
1>
0C
1@
1#!
0y
1z
0w
0x
0[
1X
1`
#230000
1&
19
1w
1x
#230001
1q
0t
1$!
0'!
0G
1D
0.
1+
#240000
0&
0%
0'
1*
0$
0(
1#
1)
09
0>
0=
1<
1C
1B
0A
0@
0#!
0"!
1!!
1y
1|
0{
0z
0w
0x
1[
1Z
0Y
0X
0`
0_
1^
#250000
1&
19
1w
1x
#250001
0q
0r
1s
1t
0$!
0%!
1&!
1'!
1G
1F
0E
0D
1.
1-
0,
0+
#260000
0&
1%
1'
1(
0)
09
1>
0B
1A
1@
1#!
1"!
0!!
1z
0w
0x
0Z
1Y
1X
1`
#270000
1&
19
1w
1x
#270001
1q
1r
0s
1$!
1%!
0&!
0F
1E
1D
0-
1,
1+
#280000
0&
0%
0'
1$
09
0>
1=
0@
0#!
1{
0z
0w
0x
0X
0`
1_
#290000
1&
19
1w
1x
#290001
0q
0$!
0D
0+
#300000
0&
1%
0(
1)
09
1>
1B
0A
0"!
1!!
1z
0w
0x
1Z
0Y
1`
#310000
1&
19
1w
1x
#310001
0r
1s
0%!
1&!
1F
0E
1-
0,
#320000
0&
0%
1(
1'
0$
0*
0#
0"
1!
09
0>
0=
0<
0;
1:
0C
1A
1@
1#!
1"!
0y
1~
0}
0|
0{
0z
0w
0x
0[
1Y
1X
0`
0_
0^
0]
1\
#330000
1&
19
1w
1x
#330001
1q
1r
0t
1$!
1%!
0'!
0G
1E
1D
0.
1,
1+
#340000
0&
1%
0'
1*
0)
09
1>
1C
0B
0@
0#!
0!!
1y
1z
0w
0x
1[
0Z
0X
1`
#350000
1&
19
1w
1x
#350001
0q
0s
1t
0$!
0&!
1'!
1G
0F
0D
1.
0-
0+
#360000
0&
0%
1$
09
0>
1=
1{
0z
0w
0x
0`
1_
#370000
1&
19
1w
1x
#380000
0&
1%
1'
0*
1)
09
1>
0C
1B
1@
1#!
1!!
0y
1z
0w
0x
0[
1Z
1X
1`
#390000
1&
19
1w
1x
#390001
1q
1s
0t
1$!
1&!
0'!
0G
1F
1D
0.
1-
1+
#400000
0&
0%
0'
1*
0$
1#
09
0>
0=
1<
1C
0@
0#!
1y
1|
0{
0z
0w
0x
1[
0X
0`
0_
1^
#410000
1&
19
1w
1x
#410001
0q
1t
0$!
1'!
1G
0D
1.
0+
#420000
0&
1%
1'
0)
09
1>
0B
1@
1#!
0!!
1z
0w
0x
0Z
1X
1`
#430000
1&
19
1w
1x
#430001
1q
0s
1$!
0&!
0F
1D
0-
1+
#440000
0&
0%
0'
1)
0*
1$
09
0>
1=
0C
1B
0@
0#!
1!!
0y
1{
0z
0w
0x
0[
1Z
0X
0`
1_
#450000
1&
19
1w
1x
#450001
0q
1s
0t
0$!
1&!
0'!
0G
1F
0D
0.
1-
0+
#460000
0&
1%
1'
0)
1*
0(
09
1>
1C
0B
0A
1@
1#!
0"!
0!!
1y
1z
0w
0x
1[
0Z
0Y
1X
1`
#470000
1&
19
1w
1x
#470001
1q
0r
0s
1t
1$!
0%!
0&!
1'!
1G
0F
0E
1D
1.
0-
0,
1+
#480000
0&
0%
0$
0#
1"
09
0>
0=
0<
1;
1}
0|
0{
0z
0w
0x
0`
0_
0^
1]
#490000
1&
19
1w
1x
#500000
0&
1%
09
1>
1z
0w
0x
1`
#510000
1&
19
1w
1x
#520000
0&
0%
1$
0'
1(
09
0>
1=
1A
0@
0#!
1"!
1{
0z
0w
0x
1Y
0X
0`
1_
#530000
1&
19
1w
1x
#530001
0q
1r
0$!
1%!
1E
0D
1,
0+
#540000
0&
1%
1'
1)
09
1>
1B
1@
1#!
1!!
1z
0w
0x
1Z
1X
1`
#550000
1&
19
1w
1x
#550001
1q
1s
1$!
1&!
1F
1D
1-
1+
#560000
0&
0%
0$
1#
09
0>
0=
1<
1|
0{
0z
0w
0x
0`
0_
1^
#570000
1&
19
1w
1x
#580000
0&
1%
0)
0(
0*
09
1>
0C
0B
0A
0"!
0!!
0y
1z
0w
0x
0[
0Z
0Y
1`
#590000
1&
19
1w
1x
#590001
0r
0s
0t
0%!
0&!
0'!
0G
0F
0E
0.
0-
0,
#600000
0&
0%
1$
0'
09
0>
1=
0@
0#!
1{
0z
0w
0x
0X
0`
1_
#610000
1&
19
1w
1x
#610001
0q
0$!
0D
0+
#620000
0&
1%
1'
1)
1(
1*
09
1>
1C
1B
1A
1@
1#!
1"!
1!!
1y
1z
0w
0x
1[
1Z
1Y
1X
1`
#630000
1&
19
1w
1x
#630001
1q
1r
1s
1t
1$!
1%!
1&!
1'!
1G
1F
1E
1D
1.
1-
1,
1+
#640000
0&
0%
0'
0(
0*
0$
0#
0"
0!
0/
09
0>
0=
0<
0;
0:
0C
0A
0@
0?
0v
0#!
0"!
0y
0~
0}
0|
0{
0z
0w
0x
0[
0Y
0X
0`
0_
0^
0]
0\
#650000
1&
19
1w
1x
#650001
0q
0r
0$!
0%!
0E
0D
0,
0+
#660000
0&
1%
1(
1*
0)
09
1>
1C
0B
1A
1"!
0!!
1y
1z
0w
0x
1[
0Z
1Y
1`
#670000
1&
19
1w
1x
#670001
0s
0&!
0F
0-
#680000
0&
0%
0*
1)
1$
09
0>
1=
0C
1B
1!!
0y
1{
0z
0w
0x
0[
1Z
0`
1_
#690000
1&
19
1w
1x
#690001
1q
0t
1$!
0'!
0G
1D
0.
1+
#700000
0&
1%
0(
09
1>
0A
0"!
1z
0w
0x
0Y
1`
#710000
1&
19
1w
1x
#710001
1r
1t
1%!
1'!
1G
1E
1.
1,
#720000
0&
0%
1(
1*
0$
1'
1#
09
0>
0=
1<
1C
1A
1@
1#!
1"!
1y
1|
0{
0z
0w
0x
1[
1Y
1X
0`
0_
1^
#730000
1&
19
1w
1x
#730001
0q
0r
0t
0$!
0%!
0'!
0G
0E
0D
0.
0,
0+
#740000
0&
1%
0(
09
1>
0A
0"!
1z
0w
0x
0Y
1`
#750000
1&
19
1w
1x
#750001
1q
1r
1s
1t
1$!
1%!
1&!
1'!
1G
1F
1E
1D
1.
1-
1,
1+
#760000
0&
0%
0*
1$
0'
0)
09
0>
1=
0C
0B
0@
0#!
0!!
0y
1{
0z
0w
0x
0[
0Z
0X
0`
1_
#770000
1&
19
1w
1x
#770001
0q
0s
0$!
0&!
0F
0D
0-
0+
#780000
0&
1%
1'
09
1>
1@
1#!
1z
0w
0x
1X
1`
#790000
1&
19
1w
1x
#790001
1q
0r
0t
1$!
0%!
0'!
0G
0E
1D
0.
0,
1+
#800000
0&
0%
1*
0$
1)
1(
0#
1"
09
0>
0=
0<
1;
1C
1B
1A
1"!
1!!
1y
1}
0|
0{
0z
0w
0x
1[
1Z
1Y
0`
0_
0^
1]
#810000
1&
19
1w
1x
#810001
0q
0$!
0D
0+
#820000
0&
1%
0*
0(
0'
09
1>
0C
0A
0@
0#!
0"!
0y
1z
0w
0x
0[
0Y
0X
1`
#830000
1&
19
1w
1x
#830001
1q
1$!
1D
1+
#840000
0&
0%
1*
1$
0)
09
0>
1=
1C
0B
0!!
1y
1{
0z
0w
0x
1[
0Z
0`
1_
#850000
1&
19
1w
1x
#850001
0q
1r
1t
0$!
1%!
1'!
1G
1E
0D
1.
1,
0+
#860000
0&
1%
0*
1(
09
1>
0C
1A
1"!
0y
1z
0w
0x
0[
1Y
1`
#870000
1&
19
1w
1x
#870001
1q
0t
1$!
0'!
0G
1D
0.
1+
#880000
0&
0%
0(
0$
1)
1#
09
0>
0=
1<
1B
0A
0"!
1!!
1|
0{
0z
0w
0x
1Z
0Y
0`
0_
1^
#890000
1&
19
1w
1x
#890001
0q
0r
1s
1t
0$!
0%!
1&!
1'!
1G
1F
0E
0D
1.
1-
0,
0+
#900000
0&
1%
0)
09
1>
0B
0!!
1z
0w
0x
0Z
1`
#910000
1&
19
1w
1x
#910001
1q
1r
0s
1$!
1%!
0&!
0F
1E
1D
0-
1,
1+
#920000
0&
0%
1$
1*
09
0>
1=
1C
1y
1{
0z
0w
0x
1[
0`
1_
#930000
1&
19
1w
1x
#930001
0q
0$!
0D
0+
#940000
0&
1%
1)
1(
1'
09
1>
1B
1A
1@
1#!
1"!
1!!
1z
0w
0x
1Z
1Y
1X
1`
#950000
1&
19
1w
1x
#950001
0r
1s
0%!
1&!
1F
0E
1-
0,
#960000
0&
0%
0)
0$
0#
0"
1!
09
0>
0=
0<
0;
1:
0B
0!!
1~
0}
0|
0{
0z
0w
0x
0Z
0`
0_
0^
0]
1\
#970000
1&
19
1w
1x
#970001
1q
1r
0t
1$!
1%!
0'!
0G
1E
1D
0.
1,
1+
#980000
0&
1%
1)
0*
09
1>
0C
1B
1!!
0y
1z
0w
0x
0[
1Z
1`
#990000
1&
19
1w
1x
#990001
0q
0s
1t
0$!
0&!
1'!
1G
0F
0D
1.
0-
0+
